{
  "id": 10873929,
  "web_url": "https://gitlab.com/groups/redhat/centos-stream/src/kernel",
  "name": "kernel",
  "path": "kernel",
  "description": "Source-git repo for the kernel.\r\n\r\nSee [documentation](https://gitlab.com/redhat/centos-stream/src/kernel/documentation) for information.  See [bugreports](https://gitlab.com/redhat/centos-stream/src/kernel/bugreports) for issues and mailing list info.",
  "visibility": "public",
  "share_with_group_lock": false,
  "require_two_factor_authentication": false,
  "two_factor_grace_period": 48,
  "project_creation_level": "maintainer",
  "auto_devops_enabled": null,
  "subgroup_creation_level": "maintainer",
  "emails_disabled": false,
  "emails_enabled": true,
  "mentions_disabled": true,
  "lfs_enabled": false,
  "math_rendering_limits_enabled": true,
  "lock_math_rendering_limits_enabled": false,
  "default_branch_protection": 2,
  "default_branch_protection_defaults": {
    "allowed_to_push": [
      {
        "access_level": 40
      }
    ],
    "allow_force_push": false,
    "allowed_to_merge": [
      {
        "access_level": 40
      }
    ]
  },
  "avatar_url": null,
  "request_access_enabled": false,
  "full_name": "Red Hat / centos-stream / src / kernel",
  "full_path": "redhat/centos-stream/src/kernel",
  "created_at": "2021-02-04T13:59:26.080Z",
  "parent_id": 9376152,
  "organization_id": 1,
  "shared_runners_setting": "enabled",
  "ldap_cn": null,
  "ldap_access": null,
  "saml_group_links": [
    {
      "name": "bugzilla-redhat",
      "access_level": 30
    },
    {
      "name": "bz_redhat",
      "access_level": 30
    },
    {
      "name": "cki",
      "access_level": 30
    },
    {
      "name": "cki-admin",
      "access_level": 40
    },
    {
      "name": "cki-kernel-repo-developer-bots",
      "access_level": 30
    },
    {
      "name": "cki-kernel-repo-maintainer-bots",
      "access_level": 40
    },
    {
      "name": "gitlab-saas-developer-temp-access",
      "access_level": 30
    },
    {
      "name": "kernel-maintainers-core",
      "access_level": 50
    },
    {
      "name": "kernel-rt-maintainers-core",
      "access_level": 40
    },
    {
      "name": "linux-eng-pe",
      "access_level": 30
    },
    {
      "name": "product-authorized-gitlab",
      "access_level": 30
    }
  ],
  "marked_for_deletion_on": null,
  "wiki_access_level": "enabled",
  "shared_with_groups": [],
  "projects": [
    {
      "id": 29266877,
      "description": "Common project to file issues with the kernel workflow",
      "name": "bugreports",
      "name_with_namespace": "Red Hat / centos-stream / src / kernel / bugreports",
      "path": "bugreports",
      "path_with_namespace": "redhat/centos-stream/src/kernel/bugreports",
      "created_at": "2021-08-31T19:25:29.052Z",
      "tag_list": [],
      "topics": [],
      "ssh_url_to_repo": "git@gitlab.com:redhat/centos-stream/src/kernel/bugreports.git",
      "http_url_to_repo": "https://gitlab.com/redhat/centos-stream/src/kernel/bugreports.git",
      "web_url": "https://gitlab.com/redhat/centos-stream/src/kernel/bugreports",
      "avatar_url": null,
      "star_count": 0,
      "last_activity_at": "2022-08-16T16:35:14.232Z",
      "namespace": {
        "id": 9876,
        "name": "kernel",
        "path": "kernel",
        "kind": "group",
        "full_path": "redhat/centos-stream/src/kernel",
        "parent_id": 9376152,
        "avatar_url": null,
        "web_url": "https://gitlab.com/groups/redhat/centos-stream/src/kernel"
      },
      "container_registry_image_prefix": "registry.gitlab.com/redhat/centos-stream/src/kernel/bugreports",
      "_links": {
        "self": "https://gitlab.com/api/v4/projects/29266877",
        "issues": "https://gitlab.com/api/v4/projects/29266877/issues",
        "repo_branches": "https://gitlab.com/api/v4/projects/29266877/repository/branches",
        "labels": "https://gitlab.com/api/v4/projects/29266877/labels",
        "events": "https://gitlab.com/api/v4/projects/29266877/events",
        "members": "https://gitlab.com/api/v4/projects/29266877/members",
        "cluster_agents": "https://gitlab.com/api/v4/projects/29266877/cluster_agents"
      },
      "packages_enabled": false,
      "empty_repo": true,
      "archived": false,
      "visibility": "public",
      "resolve_outdated_diff_discussions": false,
      "container_expiration_policy": {
        "cadence": "1d",
        "enabled": false,
        "keep_n": 10,
        "older_than": "90d",
        "name_regex": ".*",
        "name_regex_keep": null,
        "next_run_at": "2021-09-01T19:25:29.086Z"
      },
      "repository_object_format": "sha1",
      "issues_enabled": true,
      "merge_requests_enabled": false,
      "wiki_enabled": true,
      "jobs_enabled": false,
      "snippets_enabled": true,
      "container_registry_enabled": false,
      "service_desk_enabled": true,
      "can_create_merge_request_in": false,
      "issues_access_level": "enabled",
      "repository_access_level": "disabled",
      "merge_requests_access_level": "disabled",
      "forking_access_level": "enabled",
      "wiki_access_level": "enabled",
      "builds_access_level": "disabled",
      "snippets_access_level": "enabled",
      "pages_access_level": "enabled",
      "analytics_access_level": "disabled",
      "container_registry_access_level": "disabled",
      "security_and_compliance_access_level": "disabled",
      "releases_access_level": "disabled",
      "environments_access_level": "disabled",
      "feature_flags_access_level": "disabled",
      "infrastructure_access_level": "disabled",
      "monitor_access_level": "disabled",
      "model_experiments_access_level": "enabled",
      "model_registry_access_level": "enabled",
      "emails_disabled": false,
      "emails_enabled": true,
      "shared_runners_enabled": false,
      "lfs_enabled": false,
      "creator_id": 4071264,
      "import_status": "none",
      "open_issues_count": 0,
      "description_html": "<p data-sourcepos=\"1:1-1:54\" dir=\"auto\">Common project to file issues with the kernel workflow</p>",
      "updated_at": "2023-11-19T15:12:41.718Z",
      "public_jobs": true,
      "shared_with_groups": [],
      "only_allow_merge_if_pipeline_succeeds": false,
      "allow_merge_on_skipped_pipeline": null,
      "request_access_enabled": true,
      "only_allow_merge_if_all_discussions_are_resolved": false,
      "remove_source_branch_after_merge": true,
      "printing_merge_request_link_enabled": true,
      "merge_method": "merge",
      "squash_option": "default_off",
      "enforce_auth_checks_on_uploads": true,
      "suggestion_commit_message": null,
      "merge_commit_template": null,
      "squash_commit_template": null,
      "issue_branch_template": null,
      "warn_about_potentially_unwanted_characters": true,
      "autoclose_referenced_issues": true,
      "approvals_before_merge": 0,
      "mirror": false,
      "external_authorization_classification_label": "",
      "marked_for_deletion_at": null,
      "marked_for_deletion_on": null,
      "requirements_enabled": false,
      "requirements_access_level": "disabled",
      "security_and_compliance_enabled": false,
      "compliance_frameworks": [],
      "issues_template": "## Summary\r\n\r\n(Summarize the bug)\r\n\r\n## Steps to reproduce\r\n\r\n(How can the issue be reproduced)\r\n\r\n\r\n/label ~kernel ~KWF",
      "merge_pipelines_enabled": false,
      "merge_trains_enabled": false,
      "merge_trains_skip_train_allowed": false,
      "allow_pipeline_trigger_approve_deployment": false
    },
    {
      "id": 26062146,
      "description": "Source repo for CentOS Stream 8 package \"kernel\". Merge requests will NEVER be merged here. Please follow https://docs.centos.org/en-US/stream-contrib/\r\n",
      "name": "centos-stream-8",
      "name_with_namespace": "Red Hat / centos-stream / src / kernel / centos-stream-8",
      "path": "centos-stream-8",
      "path_with_namespace": "redhat/centos-stream/src/kernel/centos-stream-8",
      "created_at": "2021-04-21T14:40:15.651Z",
      "default_branch": "c8s",
      "tag_list": [],
      "topics": [],
      "ssh_url_to_repo": "git@gitlab.com:redhat/centos-stream/src/kernel/centos-stream-8.git",
      "http_url_to_repo": "https://gitlab.com/redhat/centos-stream/src/kernel/centos-stream-8.git",
      "web_url": "https://gitlab.com/redhat/centos-stream/src/kernel/centos-stream-8",
      "readme_url": "https://gitlab.com/redhat/centos-stream/src/kernel/centos-stream-8/-/blob/c8s/README",
      "forks_count": 35,
      "avatar_url": null,
      "star_count": 10,
      "last_activity_at": "2023-03-13T16:30:22.427Z",
      "namespace": {
        "id": 9876,
        "name": "kernel",
        "path": "kernel",
        "kind": "group",
        "full_path": "redhat/centos-stream/src/kernel",
        "parent_id": 9376152,
        "avatar_url": null,
        "web_url": "https://gitlab.com/groups/redhat/centos-stream/src/kernel"
      },
      "container_registry_image_prefix": "registry.gitlab.com/redhat/centos-stream/src/kernel/centos-stream-8",
      "_links": {
        "self": "https://gitlab.com/api/v4/projects/26062146",
        "merge_requests": "https://gitlab.com/api/v4/projects/26062146/merge_requests",
        "repo_branches": "https://gitlab.com/api/v4/projects/26062146/repository/branches",
        "labels": "https://gitlab.com/api/v4/projects/26062146/labels",
        "events": "https://gitlab.com/api/v4/projects/26062146/events",
        "members": "https://gitlab.com/api/v4/projects/26062146/members",
        "cluster_agents": "https://gitlab.com/api/v4/projects/26062146/cluster_agents"
      },
      "packages_enabled": true,
      "empty_repo": false,
      "archived": false,
      "visibility": "public",
      "resolve_outdated_diff_discussions": false,
      "container_expiration_policy": {
        "cadence": "1d",
        "enabled": false,
        "keep_n": 10,
        "older_than": "90d",
        "name_regex": ".*",
        "name_regex_keep": null,
        "next_run_at": "2021-04-22T14:40:15.679Z"
      },
      "repository_object_format": "sha1",
      "issues_enabled": false,
      "merge_requests_enabled": true,
      "wiki_enabled": true,
      "jobs_enabled": true,
      "snippets_enabled": true,
      "container_registry_enabled": true,
      "service_desk_enabled": true,
      "can_create_merge_request_in": false,
      "issues_access_level": "disabled",
      "repository_access_level": "enabled",
      "merge_requests_access_level": "enabled",
      "forking_access_level": "enabled",
      "wiki_access_level": "enabled",
      "builds_access_level": "enabled",
      "snippets_access_level": "enabled",
      "pages_access_level": "enabled",
      "analytics_access_level": "enabled",
      "container_registry_access_level": "enabled",
      "security_and_compliance_access_level": "private",
      "releases_access_level": "enabled",
      "environments_access_level": "enabled",
      "feature_flags_access_level": "enabled",
      "infrastructure_access_level": "enabled",
      "monitor_access_level": "enabled",
      "model_experiments_access_level": "enabled",
      "model_registry_access_level": "enabled",
      "emails_disabled": false,
      "emails_enabled": true,
      "shared_runners_enabled": false,
      "lfs_enabled": false,
      "creator_id": 737640,
      "import_status": "none",
      "description_html": "<p data-sourcepos=\"1:1-1:151\" dir=\"auto\">Source repo for CentOS Stream 8 package \"kernel\". Merge requests will NEVER be merged here. Please follow <a href=\"https://docs.centos.org/en-US/stream-contrib/\" rel=\"nofollow noreferrer noopener\" target=\"_blank\">https://docs.centos.org/en-US/stream-contrib/</a></p>",
      "updated_at": "2024-01-16T06:08:20.477Z",
      "ci_config_path": "",
      "public_jobs": true,
      "shared_with_groups": [],
      "only_allow_merge_if_pipeline_succeeds": false,
      "allow_merge_on_skipped_pipeline": null,
      "request_access_enabled": true,
      "only_allow_merge_if_all_discussions_are_resolved": false,
      "remove_source_branch_after_merge": true,
      "printing_merge_request_link_enabled": true,
      "merge_method": "merge",
      "squash_option": "default_off",
      "enforce_auth_checks_on_uploads": true,
      "suggestion_commit_message": null,
      "merge_commit_template": null,
      "squash_commit_template": null,
      "issue_branch_template": null,
      "warn_about_potentially_unwanted_characters": true,
      "autoclose_referenced_issues": true,
      "approvals_before_merge": 0,
      "mirror": false,
      "external_authorization_classification_label": "",
      "marked_for_deletion_at": null,
      "marked_for_deletion_on": null,
      "requirements_enabled": true,
      "requirements_access_level": "enabled",
      "security_and_compliance_enabled": false,
      "compliance_frameworks": [],
      "merge_requests_template": null,
      "merge_pipelines_enabled": false,
      "merge_trains_enabled": false,
      "merge_trains_skip_train_allowed": false,
      "only_allow_merge_if_all_status_checks_passed": false,
      "allow_pipeline_trigger_approve_deployment": false,
      "prevent_merge_without_jira_issue": false
    },
    {
      "id": 24455796,
      "description": "https://redhat.gitlab.io/centos-stream/src/kernel/documentation/",
      "name": "documentation",
      "name_with_namespace": "Red Hat / centos-stream / src / kernel / documentation",
      "path": "documentation",
      "path_with_namespace": "redhat/centos-stream/src/kernel/documentation",
      "created_at": "2021-02-16T19:05:49.333Z",
      "default_branch": "main",
      "tag_list": [],
      "topics": [],
      "ssh_url_to_repo": "git@gitlab.com:redhat/centos-stream/src/kernel/documentation.git",
      "http_url_to_repo": "https://gitlab.com/redhat/centos-stream/src/kernel/documentation.git",
      "web_url": "https://gitlab.com/redhat/centos-stream/src/kernel/documentation",
      "readme_url": "https://gitlab.com/redhat/centos-stream/src/kernel/documentation/-/blob/main/README.md",
      "forks_count": 126,
      "avatar_url": null,
      "star_count": 21,
      "last_activity_at": "2024-02-21T17:52:31.023Z",
      "namespace": {
        "id": 9876,
        "name": "kernel",
        "path": "kernel",
        "kind": "group",
        "full_path": "redhat/centos-stream/src/kernel",
        "parent_id": 9376152,
        "avatar_url": null,
        "web_url": "https://gitlab.com/groups/redhat/centos-stream/src/kernel"
      },
      "container_registry_image_prefix": "registry.gitlab.com/redhat/centos-stream/src/kernel/documentation",
      "_links": {
        "self": "https://gitlab.com/api/v4/projects/24455796",
        "issues": "https://gitlab.com/api/v4/projects/24455796/issues",
        "merge_requests": "https://gitlab.com/api/v4/projects/24455796/merge_requests",
        "repo_branches": "https://gitlab.com/api/v4/projects/24455796/repository/branches",
        "labels": "https://gitlab.com/api/v4/projects/24455796/labels",
        "events": "https://gitlab.com/api/v4/projects/24455796/events",
        "members": "https://gitlab.com/api/v4/projects/24455796/members",
        "cluster_agents": "https://gitlab.com/api/v4/projects/24455796/cluster_agents"
      },
      "packages_enabled": true,
      "empty_repo": false,
      "archived": false,
      "visibility": "public",
      "resolve_outdated_diff_discussions": false,
      "container_expiration_policy": {
        "cadence": "1d",
        "enabled": false,
        "keep_n": 10,
        "older_than": "90d",
        "name_regex": ".*",
        "name_regex_keep": null,
        "next_run_at": "2021-02-17T19:05:49.373Z"
      },
      "repository_object_format": "sha1",
      "issues_enabled": true,
      "merge_requests_enabled": true,
      "wiki_enabled": true,
      "jobs_enabled": true,
      "snippets_enabled": true,
      "container_registry_enabled": true,
      "service_desk_enabled": true,
      "can_create_merge_request_in": false,
      "issues_access_level": "enabled",
      "repository_access_level": "enabled",
      "merge_requests_access_level": "enabled",
      "forking_access_level": "enabled",
      "wiki_access_level": "enabled",
      "builds_access_level": "enabled",
      "snippets_access_level": "enabled",
      "pages_access_level": "enabled",
      "analytics_access_level": "enabled",
      "container_registry_access_level": "enabled",
      "security_and_compliance_access_level": "private",
      "releases_access_level": "enabled",
      "environments_access_level": "enabled",
      "feature_flags_access_level": "enabled",
      "infrastructure_access_level": "enabled",
      "monitor_access_level": "enabled",
      "model_experiments_access_level": "enabled",
      "model_registry_access_level": "enabled",
      "emails_disabled": false,
      "emails_enabled": true,
      "shared_runners_enabled": true,
      "lfs_enabled": true,
      "creator_id": 4071264,
      "import_status": "none",
      "open_issues_count": 23,
      "description_html": "<p data-sourcepos=\"1:1-1:64\" dir=\"auto\"><a href=\"https://redhat.gitlab.io/centos-stream/src/kernel/documentation/\" rel=\"nofollow noreferrer noopener\" target=\"_blank\">https://redhat.gitlab.io/centos-stream/src/kernel/documentation/</a></p>",
      "updated_at": "2024-02-21T17:52:31.023Z",
      "ci_config_path": "",
      "public_jobs": true,
      "shared_with_groups": [],
      "only_allow_merge_if_pipeline_succeeds": true,
      "allow_merge_on_skipped_pipeline": false,
      "request_access_enabled": true,
      "only_allow_merge_if_all_discussions_are_resolved": true,
      "remove_source_branch_after_merge": true,
      "printing_merge_request_link_enabled": true,
      "merge_method": "merge",
      "squash_option": "never",
      "enforce_auth_checks_on_uploads": true,
      "suggestion_commit_message": "",
      "merge_commit_template": null,
      "squash_commit_template": null,
      "issue_branch_template": null,
      "warn_about_potentially_unwanted_characters": true,
      "autoclose_referenced_issues": true,
      "approvals_before_merge": 0,
      "mirror": false,
      "external_authorization_classification_label": "",
      "marked_for_deletion_at": null,
      "marked_for_deletion_on": null,
      "requirements_enabled": false,
      "requirements_access_level": "enabled",
      "security_and_compliance_enabled": false,
      "compliance_frameworks": [],
      "issues_template": null,
      "merge_requests_template": "## Please read the documentation project README.md.  A bugzilla is not required for documentation changes.",
      "merge_pipelines_enabled": false,
      "merge_trains_enabled": false,
      "merge_trains_skip_train_allowed": false,
      "allow_pipeline_trigger_approve_deployment": false
    },
    {
      "id": 24152864,
      "description": "Source-git repo for the kernel. See [documentation](https://gitlab.com/redhat/centos-stream/src/kernel/documentation) for information. See [bugreports](https://gitlab.com/redhat/centos-stream/src/kernel/bugreports) for issues and mailing list info. Please do not modify any settings directly, these are managed as described in the [internal CKI documentation](https://documentation.internal.cki-project.org/l/gitlab-repo-setup).",
      "name": "centos-stream-9",
      "name_with_namespace": "Red Hat / centos-stream / src / kernel / centos-stream-9",
      "path": "centos-stream-9",
      "path_with_namespace": "redhat/centos-stream/src/kernel/centos-stream-9",
      "created_at": "2021-02-04T14:04:59.917Z",
      "default_branch": "main",
      "tag_list": [],
      "topics": [],
      "ssh_url_to_repo": "git@gitlab.com:redhat/centos-stream/src/kernel/centos-stream-9.git",
      "http_url_to_repo": "https://gitlab.com/redhat/centos-stream/src/kernel/centos-stream-9.git",
      "web_url": "https://gitlab.com/redhat/centos-stream/src/kernel/centos-stream-9",
      "readme_url": "https://gitlab.com/redhat/centos-stream/src/kernel/centos-stream-9/-/blob/main/README",
      "forks_count": 349,
      "avatar_url": null,
      "star_count": 69,
      "last_activity_at": "2024-02-22T14:24:32.226Z",
      "namespace": {
        "id": 9876,
        "name": "kernel",
        "path": "kernel",
        "kind": "group",
        "full_path": "redhat/centos-stream/src/kernel",
        "parent_id": 9376152,
        "avatar_url": null,
        "web_url": "https://gitlab.com/groups/redhat/centos-stream/src/kernel"
      },
      "container_registry_image_prefix": "registry.gitlab.com/redhat/centos-stream/src/kernel/centos-stream-9",
      "_links": {
        "self": "https://gitlab.com/api/v4/projects/24152864",
        "merge_requests": "https://gitlab.com/api/v4/projects/24152864/merge_requests",
        "repo_branches": "https://gitlab.com/api/v4/projects/24152864/repository/branches",
        "labels": "https://gitlab.com/api/v4/projects/24152864/labels",
        "events": "https://gitlab.com/api/v4/projects/24152864/events",
        "members": "https://gitlab.com/api/v4/projects/24152864/members",
        "cluster_agents": "https://gitlab.com/api/v4/projects/24152864/cluster_agents"
      },
      "packages_enabled": false,
      "empty_repo": false,
      "archived": false,
      "visibility": "public",
      "resolve_outdated_diff_discussions": false,
      "container_expiration_policy": {
        "cadence": "1d",
        "enabled": false,
        "keep_n": 10,
        "older_than": "90d",
        "name_regex": ".*",
        "name_regex_keep": null,
        "next_run_at": "2021-02-05T14:04:59.967Z"
      },
      "repository_object_format": "sha1",
      "issues_enabled": false,
      "merge_requests_enabled": true,
      "wiki_enabled": false,
      "jobs_enabled": true,
      "snippets_enabled": false,
      "container_registry_enabled": false,
      "service_desk_enabled": false,
      "can_create_merge_request_in": false,
      "issues_access_level": "disabled",
      "repository_access_level": "enabled",
      "merge_requests_access_level": "enabled",
      "forking_access_level": "enabled",
      "wiki_access_level": "disabled",
      "builds_access_level": "enabled",
      "snippets_access_level": "disabled",
      "pages_access_level": "disabled",
      "analytics_access_level": "enabled",
      "container_registry_access_level": "disabled",
      "security_and_compliance_access_level": "private",
      "releases_access_level": "disabled",
      "environments_access_level": "disabled",
      "feature_flags_access_level": "disabled",
      "infrastructure_access_level": "disabled",
      "monitor_access_level": "disabled",
      "model_experiments_access_level": "disabled",
      "model_registry_access_level": "disabled",
      "emails_disabled": false,
      "emails_enabled": true,
      "shared_runners_enabled": false,
      "lfs_enabled": false,
      "creator_id": 6008365,
      "import_status": "none",
      "description_html": "<p data-sourcepos=\"1:1-1:428\" dir=\"auto\">Source-git repo for the kernel. See <a data-sourcepos=\"1:37-1:117\" href=\"https://gitlab.com/redhat/centos-stream/src/kernel/documentation\">documentation</a> for information. See <a data-sourcepos=\"1:140-1:214\" href=\"https://gitlab.com/redhat/centos-stream/src/kernel/bugreports\">bugreports</a> for issues and mailing list info. Please do not modify any settings directly, these are managed as described in the <a data-sourcepos=\"1:332-1:427\" href=\"https://documentation.internal.cki-project.org/l/gitlab-repo-setup\" rel=\"nofollow noreferrer noopener\" target=\"_blank\">internal CKI documentation</a>.</p>",
      "updated_at": "2024-02-22T14:24:32.226Z",
      "ci_config_path": "",
      "public_jobs": true,
      "shared_with_groups": [],
      "only_allow_merge_if_pipeline_succeeds": false,
      "allow_merge_on_skipped_pipeline": false,
      "request_access_enabled": false,
      "only_allow_merge_if_all_discussions_are_resolved": true,
      "remove_source_branch_after_merge": true,
      "printing_merge_request_link_enabled": true,
      "merge_method": "merge",
      "squash_option": "never",
      "enforce_auth_checks_on_uploads": true,
      "suggestion_commit_message": "",
      "merge_commit_template": "Merge: %{title}\n\nMR: %{url}\n\n%{description}\n\n%{approved_by}\n\nMerged-by: %{merged_by}",
      "squash_commit_template": "",
      "issue_branch_template": null,
      "warn_about_potentially_unwanted_characters": true,
      "autoclose_referenced_issues": true,
      "approvals_before_merge": 0,
      "mirror": false,
      "external_authorization_classification_label": "",
      "marked_for_deletion_at": null,
      "marked_for_deletion_on": null,
      "requirements_enabled": true,
      "requirements_access_level": "disabled",
      "security_and_compliance_enabled": false,
      "compliance_frameworks": [],
      "merge_requests_template": "",
      "merge_pipelines_enabled": true,
      "merge_trains_enabled": false,
      "merge_trains_skip_train_allowed": false,
      "only_allow_merge_if_all_status_checks_passed": false,
      "allow_pipeline_trigger_approve_deployment": false,
      "prevent_merge_without_jira_issue": false
    }
  ],
  "shared_projects": [],
  "shared_runners_minutes_limit": null,
  "extra_shared_runners_minutes_limit": null,
  "prevent_forking_outside_group": false,
  "membership_lock": false,
  "ip_restriction_ranges": null
}
